﻿Sentence,Answer,Meaning,Difficulty Level,Profession,Explanation(Optional)
The Atlantic Ocean is the biggest ocean on Earth.,FALSE,আটলান্টিক মহাসাগর পৃথিবীর বৃহত্তম সমুদ্র।,1,Student,
Sharks are mammals.,FALSE,হাঙ্গর স্তন্যপায়ী হয়।,1,Student,
The human body has four lungs.,FALSE,মানুষের দেহে চারটি ফুসফুস রয়েছে।,1,Student,
Water is an example of a chemical element.,FALSE,পানি একটি রাসায়নিক উপাদান এর উদাহরণ।,1,Student,
Spiders have six legs.,FALSE,মাকড়সার ছয় পা আছে।,1,Student,
The human skeleton is made up of less than 100 bones.,FALSE,মানুষের কঙ্কালটি 100 টি হাড়ের চেয়েও কম।,1,Student,
The study of plants is known as botany.,TRUE,উদ্ভিদের গবেষণা উদ্ভিদবিজ্ঞান হিসাবে পরিচিত ।,1,Student,
Dhaka is the biggest city in Bangladesh.,TRUE,ঢাকা বাংলাদেশের সবচেয়ে বড় শহর।,1,Student,
 Atomic bombs work by atomic fission.,TRUE,পারমানবিক বোমা ফিসন বিক্রিয়ার মাধ্যমে কাজ করে।,1,Student,
Barak Obama is the present president of USA.,FALSE,বারাক ওবামা আমেরিকার বর্তমান প্রেসিডেন্ট।,1,Student,
Elephants eat with their noses.,TRUE,হাতি নাক দিয়ে খায়।,1,Student,
Camels can walk 100 miles in the desert without water,TRUE,উট  পানি ছাড়া একশত মাইল মরুভুমিতে হাটতে পারে।,1,Student,
The hummingbird egg is the world's smallest bird egg.,TRUE,হামিংবার্ডের ডিম সবচেয়ে ছোট পাখির ডিম।,1,Student,
Frogs have to drink lots of water.,FALSE,ব্যাঙের অনেক পানি পান করতে হয়।,1,Student,
We have to  wash our hands with soup after toilet.,TRUE,টয়লেটের পর সাবান দিয়ে হাত ধুতে হবে।,1,Student,
Early to bed and early to rise.,TRUE,তাড়াতাড়ি ঘুমিয়ে সকালে উঠো।,1,Student,
The sun moves round the earth.,FALSE,সূর্য পৃথিবীর চারদিকে ঘুরে।,1,Student,
Bangladesh is a populated country.,TRUE,বাংলাদেশ একটি জনসংখ্যাবহুল দেশ।,1,Student,
English is an international language.,TRUE,ইংরেজি একটি আন্তর্জাতিক ভাষা।,1,Student,
